<?xml version="1.0" encoding="UTF-8" standalone="no"?>
<svg
   xmlns:dc="http://purl.org/dc/elements/1.1/"
   xmlns:cc="http://creativecommons.org/ns#"
   xmlns:rdf="http://www.w3.org/1999/02/22-rdf-syntax-ns#"
   xmlns:svg="http://www.w3.org/2000/svg"
   xmlns="http://www.w3.org/2000/svg"
   xmlns:sodipodi="http://sodipodi.sourceforge.net/DTD/sodipodi-0.dtd"
   xmlns:inkscape="http://www.inkscape.org/namespaces/inkscape"
   viewBox="0 0 16 16"
   version="1.1"
   id="svg6"
   sodipodi:docname="25.svg"
   inkscape:version="0.92.4 5da689c313, 2019-01-14">
  <metadata
     id="metadata12">
    <rdf:RDF>
      <cc:Work
         rdf:about="">
        <dc:format>image/svg+xml</dc:format>
        <dc:type
           rdf:resource="http://purl.org/dc/dcmitype/StillImage" />
        <dc:title></dc:title>
      </cc:Work>
    </rdf:RDF>
  </metadata>
  <defs
     id="defs10" />
  <sodipodi:namedview
     pagecolor="#ffffff"
     bordercolor="#666666"
     borderopacity="1"
     objecttolerance="10"
     gridtolerance="10"
     guidetolerance="10"
     inkscape:pageopacity="0"
     inkscape:pageshadow="2"
     inkscape:window-width="1360"
     inkscape:window-height="714"
     id="namedview8"
     showgrid="false"
     inkscape:zoom="14.75"
     inkscape:cx="-15.471955"
     inkscape:cy="16.255032"
     inkscape:window-x="0"
     inkscape:window-y="31"
     inkscape:window-maximized="1"
     inkscape:current-layer="svg6" />
  <path
     d="M 5.375,1 C 4.89025,1 4.5,1.39025 4.5,1.875 V 2.75 C 3.5305,2.75 2.75,3.5305 2.75,4.5 H 1.875 C 1.39025,4.5 1,4.89025 1,5.375 1,5.85975 1.39025,6.25 1.875,6.25 H 2.75 V 7.125 H 1.875 C 1.39025,7.125 1,7.51525 1,8 1,8.48475 1.39025,8.875 1.875,8.875 H 2.75 V 9.75 H 1.875 C 1.39025,9.75 1,10.14025 1,10.625 1,11.10975 1.39025,11.5 1.875,11.5 H 2.75 c 0,0.9695 0.7805,1.75 1.75,1.75 v 0.875 C 4.5,14.60975 4.89025,15 5.375,15 5.85975,15 6.25,14.60975 6.25,14.125 V 13.25 h 0.875 v 0.875 C 7.125,14.60975 7.51525,15 8,15 8.48475,15 8.875,14.60975 8.875,14.125 V 13.25 H 9.75 v 0.875 C 9.75,14.60975 10.14025,15 10.625,15 11.10975,15 11.5,14.60975 11.5,14.125 V 13.25 c 0.9695,0 1.75,-0.7805 1.75,-1.75 h 0.875 C 14.60975,11.5 15,11.10975 15,10.625 15,10.14025 14.60975,9.75 14.125,9.75 H 13.25 V 8.875 h 0.875 C 14.60975,8.875 15,8.48475 15,8 15,7.51525 14.60975,7.125 14.125,7.125 H 13.25 V 6.25 h 0.875 C 14.60975,6.25 15,5.85975 15,5.375 15,4.89025 14.60975,4.5 14.125,4.5 H 13.25 C 13.25,3.5305 12.4695,2.75 11.5,2.75 V 1.875 C 11.5,1.39025 11.10975,1 10.625,1 10.14025,1 9.75,1.39025 9.75,1.875 V 2.75 H 8.875 V 1.875 C 8.875,1.39025 8.48475,1 8,1 7.51525,1 7.125,1.39025 7.125,1.875 V 2.75 H 6.25 V 1.875 C 6.25,1.39025 5.85975,1 5.375,1 Z M 4.9375,3.625 h 6.125 c 0.728875,0 1.3125,0.583625 1.3125,1.3125 v 6.125 c 0,0.728875 -0.583625,1.3125 -1.3125,1.3125 H 4.9375 C 4.208625,12.375 3.625,11.791375 3.625,11.0625 V 4.9375 C 3.625,4.208625 4.208625,3.625 4.9375,3.625 Z"
     style="fill:#bfbfbf;fill-opacity:1;fill-rule:evenodd;stroke:none;stroke-width:0.875"
     id="path2"
     inkscape:connector-curvature="0" />
  <rect
     width="7"
     height="1.75"
     x="4.5"
     y="9.75"
     rx="0.875"
     style="fill:#bfbfbf;fill-opacity:1;fill-rule:evenodd;stroke:none;stroke-width:0.4375"
     id="rect4" />
</svg>
