<?xml version="1.0" encoding="UTF-8" standalone="no"?>
<svg
   xmlns:dc="http://purl.org/dc/elements/1.1/"
   xmlns:cc="http://creativecommons.org/ns#"
   xmlns:rdf="http://www.w3.org/1999/02/22-rdf-syntax-ns#"
   xmlns:svg="http://www.w3.org/2000/svg"
   xmlns="http://www.w3.org/2000/svg"
   xmlns:sodipodi="http://sodipodi.sourceforge.net/DTD/sodipodi-0.dtd"
   xmlns:inkscape="http://www.inkscape.org/namespaces/inkscape"
   viewBox="0 0 16 16"
   style="enable-background:new"
   version="1.1"
   id="svg18"
   sodipodi:docname="critical.svg"
   inkscape:version="0.92.2 2405546, 2018-03-11">
  <metadata
     id="metadata24">
    <rdf:RDF>
      <cc:Work
         rdf:about="">
        <dc:format>image/svg+xml</dc:format>
        <dc:type
           rdf:resource="http://purl.org/dc/dcmitype/StillImage" />
      </cc:Work>
    </rdf:RDF>
  </metadata>
  <defs
     id="defs22" />
  <sodipodi:namedview
     pagecolor="#ffffff"
     bordercolor="#666666"
     borderopacity="1"
     objecttolerance="10"
     gridtolerance="10"
     guidetolerance="10"
     inkscape:pageopacity="0"
     inkscape:pageshadow="2"
     inkscape:window-width="705"
     inkscape:window-height="480"
     id="namedview20"
     showgrid="false"
     inkscape:zoom="14.75"
     inkscape:cx="8"
     inkscape:cy="8"
     inkscape:window-x="0"
     inkscape:window-y="31"
     inkscape:window-maximized="0"
     inkscape:current-layer="svg18" />
  <g
     transform="matrix(1 0 0 1 -321 203)"
     id="g16"
     style="fill:#cc0000">
    <path
       d="m 326 -191 6 0 0 -2.5 c 0 -0.5 -0.5 -0.5 -0.5 -0.5 l -5 0 c 0 0 -0.5 0 -0.5 0.5 z"
       style="fill:#cc0000;fill-opacity:1;color:#000"
       id="path2" />
    <g
       id="g8"
       style="fill:#cc0000">
      <rect
         rx="1"
         ry="0.75"
         style="fill:#cc0000;opacity:1;fill-opacity:1;stroke:none;fill-rule:nonzero"
         width="3"
         x="321"
         y="-192.5"
         height="1.5"
         id="rect4" />
      <rect
         rx="1"
         ry="0.75"
         style="fill:#cc0000;opacity:1;fill-opacity:1;stroke:none;fill-rule:nonzero"
         width="3"
         x="334"
         y="-192.5"
         height="1.5"
         id="rect6" />
    </g>
    <rect
       transform="matrix(0 -1 1 0 0 0)"
       rx="1"
       ry="0.75"
       style="fill:#cc0000;opacity:1;fill-opacity:1;stroke:none;fill-rule:nonzero"
       width="3"
       x="196.75"
       y="328.25"
       height="1.5"
       id="rect10" />
    <rect
       transform="matrix(-0.70711 -0.70711 0.70711 -0.70711 0 0)"
       rx="1"
       ry="0.75"
       style="fill:#cc0000;opacity:1;fill-opacity:1;stroke:none;fill-rule:nonzero"
       width="3"
       x="-92.05"
       y="367.48"
       height="1.5"
       id="rect12" />
    <rect
       transform="matrix(0.70711 -0.70711 0.70711 0.70711 0 0)"
       rx="1"
       ry="0.75"
       style="fill:#cc0000;opacity:1;fill-opacity:1;stroke:none;fill-rule:nonzero"
       width="3"
       x="373.23"
       y="96.3"
       height="1.5"
       id="rect14" />
  </g>
</svg>
